{
  "project_info": {
    "project_number": "608041727813",
    "firebase_url": "https://appointment-booking-1e36e.firebaseio.com",
    "project_id": "appointment-booking-1e36e",
    "storage_bucket": "appointment-booking-1e36e.appspot.com"
  },
  "client": [
    {
      "client_info": {
        "mobilesdk_app_id": "1:608041727813:android:8df94d67dfe1957a3df02c",
        "android_client_info": {
          "package_name": "com.mobile_app"
        }
      },
      "oauth_client": [
        {
          "client_id": "608041727813-v863dntmdisek9n4a57bladf426p61o5.apps.googleusercontent.com",
          "client_type": 3
        }
      ],
      "api_key": [
        {
          "current_key": "AIzaSyDBzwno4oPEHp0xGxaQXLK5GNJeDpQiG1I"
        }
      ],
      "services": {
        "appinvite_service": {
          "other_platform_oauth_client": [
            {
              "client_id": "608041727813-v863dntmdisek9n4a57bladf426p61o5.apps.googleusercontent.com",
              "client_type": 3
            }
          ]
        }
      }
    }
  ],
  "configuration_version": "1"
}